<?xml version="1.0" encoding="iso-8859-1"?>
<!-- Generator: Adobe Illustrator 19.0.0, SVG Export Plug-In . SVG Version: 6.00 Build 0)  -->
<svg version="1.1" id="Capa_1" xmlns="http://www.w3.org/2000/svg" xmlns:xlink="http://www.w3.org/1999/xlink" x="0px" y="0px"
	 viewBox="0 0 469.333 469.333" style="enable-background:new 0 0 469.333 469.333;" xml:space="preserve">
<path style="fill:#303C42;" d="M426.667,0h-384C19.146,0,0,19.135,0,42.667v384c0,23.531,19.146,42.667,42.667,42.667h384
	c23.521,0,42.667-19.135,42.667-42.667v-384C469.333,19.135,450.188,0,426.667,0z"/>
<path style="fill:#5C6671;" d="M448,426.667c0,11.76-9.563,21.333-21.333,21.333h-384c-11.771,0-21.333-9.573-21.333-21.333v-384
	c0-11.76,9.563-21.333,21.333-21.333h384c11.771,0,21.333,9.573,21.333,21.333V426.667z"/>
<path style="fill:#303C42;" d="M303.813,153.948c-12.667-6.969-34.958-15.281-69.146-15.281s-56.479,8.313-69.146,15.281
	c-9.979,5.5-16.188,16.177-16.188,27.865V288c0,5.896,4.771,10.667,10.667,10.667h21.333V416c0,5.896,4.771,10.667,10.667,10.667
	h85.333c5.896,0,10.667-4.771,10.667-10.667V298.667h21.333c5.896,0,10.667-4.771,10.667-10.667V181.813
	C320,170.125,313.792,159.448,303.813,153.948z"/>
<path style="fill:#EE3124;" d="M298.667,277.333h-21.333c-5.896,0-10.667,4.771-10.667,10.667v117.333h-64V288
	c0-5.896-4.771-10.667-10.667-10.667h-21.333v-95.521c0-3.906,1.979-7.427,5.146-9.177C186.292,166.875,205,160,234.667,160
	s48.375,6.875,58.854,12.635c3.167,1.75,5.146,5.271,5.146,9.177V277.333z"/>
<circle style="fill:#303C42;" cx="234.667" cy="85.333" r="42.667"/>
<circle style="fill:#EE3124;" cx="234.667" cy="85.333" r="21.333"/>
<linearGradient id="SVGID_1_" gradientUnits="userSpaceOnUse" x1="-68.6887" y1="619.0511" x2="-43.3842" y2="607.2509" gradientTransform="matrix(21.3333 0 0 -21.3333 1430.1112 13315.2227)">
	<stop  offset="0" style="stop-color:#FFFFFF;stop-opacity:0.2"/>
	<stop  offset="1" style="stop-color:#FFFFFF;stop-opacity:0"/>
</linearGradient>
<path style="fill:url(#SVGID_1_);" d="M426.667,0h-384C19.146,0,0,19.135,0,42.667v384c0,23.531,19.146,42.667,42.667,42.667h384
	c23.521,0,42.667-19.135,42.667-42.667v-384C469.333,19.135,450.188,0,426.667,0z"/>
<g>
</g>
<g>
</g>
<g>
</g>
<g>
</g>
<g>
</g>
<g>
</g>
<g>
</g>
<g>
</g>
<g>
</g>
<g>
</g>
<g>
</g>
<g>
</g>
<g>
</g>
<g>
</g>
<g>
</g>
</svg>
